<?xml version="1.0" encoding="UTF-8" standalone="no"?>
<!-- Created with Inkscape (http://www.inkscape.org/) -->

<svg
   width="210mm"
   height="297mm"
   viewBox="0 0 210 297"
   version="1.1"
   id="svg5"
   inkscape:version="1.1.2 (0a00cf5339, 2022-02-04)"
   sodipodi:docname="tree_level.svg"
   xmlns:inkscape="http://www.inkscape.org/namespaces/inkscape"
   xmlns:sodipodi="http://sodipodi.sourceforge.net/DTD/sodipodi-0.dtd"
   xmlns="http://www.w3.org/2000/svg"
   xmlns:svg="http://www.w3.org/2000/svg">
  <sodipodi:namedview
     id="namedview7"
     pagecolor="#505050"
     bordercolor="#eeeeee"
     borderopacity="1"
     inkscape:pageshadow="0"
     inkscape:pageopacity="0"
     inkscape:pagecheckerboard="0"
     inkscape:document-units="mm"
     showgrid="false"
     inkscape:zoom="8.6916616"
     inkscape:cx="145.48426"
     inkscape:cy="129.72203"
     inkscape:window-width="1904"
     inkscape:window-height="1167"
     inkscape:window-x="1605"
     inkscape:window-y="22"
     inkscape:window-maximized="1"
     inkscape:current-layer="layer1" />
  <defs
     id="defs2" />
  <g
     inkscape:label="Layer 1"
     inkscape:groupmode="layer"
     id="layer1">
    <path
       style="fill:none;stroke:#ffffff;stroke-width:0.26458299;stroke-linecap:butt;stroke-linejoin:miter;stroke-opacity:1;stroke-miterlimit:4;stroke-dasharray:0.26458299, 0.52916597;stroke-dashoffset:0"
       d="m 25.047033,26.413265 c 1.388268,-0.0375 2.784596,-0.04042 4.184819,-0.03103 3.011215,0.02018 6.040447,0.09722 9.046286,0.0094 0.746339,-0.02181 1.704502,0.130054 2.397292,-0.03788"
       id="path1385"
       sodipodi:nodetypes="cssc" />
    <path
       style="fill:none;stroke:#ffffff;stroke-width:0.264583px;stroke-linecap:butt;stroke-linejoin:miter;stroke-opacity:1"
       d="m 32.395575,26.559078 c -1.506281,-0.365523 0.07051,0.933744 -0.0421,1.052262 -0.200324,0.210843 -0.840002,0.119054 -0.945147,0.447688 -0.07562,0.236357 1.790819,0.464497 0.593116,0.952772 -0.09015,0.03675 -0.181673,0.07007 -0.271693,0.107138 -0.195945,0.08068 -0.261458,0.105944 -0.436218,0.267848 -0.163092,0.151096 1.038132,0.502788 1.006372,0.566306 -0.148807,0.297601 -0.719601,0.206656 -0.857137,0.570135 -0.102288,0.270325 0.623777,0.258141 0.684946,0.459166 0.06985,0.22955 -0.818116,0.710846 -0.309949,0.68875"
       id="path1389" />
    <path
       style="fill:none;stroke:#ffffff;stroke-width:0.264583;stroke-linecap:butt;stroke-linejoin:miter;stroke-miterlimit:4;stroke-dasharray:0.264583, 0.529166;stroke-dashoffset:0;stroke-opacity:1"
       d="m 24.888379,31.795406 c 1.388268,-0.0375 2.784596,-0.04042 4.184819,-0.03103 3.011215,0.02018 6.040447,0.09722 9.046286,0.0094 0.746339,-0.02181 1.704502,0.130054 2.397292,-0.03788"
       id="path1385-6"
       sodipodi:nodetypes="cssc" />
  </g>
</svg>
